CP.vcd
$comment
Copyright (C) 1991-2010 Altera Corporation
Your use of Altera Corporation's design tools, logic functions 
and other software and tools, and its AMPP partner logic 
functions, and any output files from any of the foregoing 
(including device programming or simulation files), and any 
associated documentation or information are expressly subject 
to the terms and conditions of the Altera Program License 
Subscription Agreement, Altera MegaCore Function License 
Agreement, or other applicable license agreement, including, 
without limitation, that your use is for the sole purpose of 
programming logic devices manufactured by Altera and sold by 
Altera or its authorized distributors.  Please refer to the 
applicable agreement for further details.
$end

$date 
  04/23/2025 21:35:55 
$end
$version 
 QUARTUS_VCD_EXPORT 1.0 
$end
$timescale
  1 ps
$end
$scope module MICROPROCESSOR $end
$var reg 1 ! HTL $end
$var reg 1 " clk $end
$var reg 11 # CTRL[10:0] $end
$var reg 9 $ CTRL_REQ[8:0] $end
$var reg 6 % CTRL_ACCESS[5:0] $end
$var reg 9 & ADDRESS[8:0] $end
$var reg 15 ' INPUT_DATA[14:0] $end
$var reg 15 ( CMD_PRT1[14:0] $end
$var reg 15 ) CMD_PRT2[14:0] $end
$var reg 6 * CMD_CODE[5:0] $end
$var reg 15 + FIRST_OP[14:0] $end
$var reg 15 , SECOND_OP[14:0] $end
$var reg 9 - RESULT_ADDR[8:0] $end
$var reg 1 . MEM_DEST $end
$var reg 1 / REG_DEST $end
$var reg 1 0 NO_DEST $end
$var reg 1 1 NO_OP $end
$var reg 15 2 RESULT_DATA[14:0] $end
$var reg 1 3 SF $end
$var reg 15 4 REG0[14:0] $end
$var reg 15 5 REG1[14:0] $end
$var reg 15 6 REG2[14:0] $end
$var reg 15 7 REG3[14:0] $end
$var reg 15 8 REG4[14:0] $end
$var reg 15 9 REG5[14:0] $end
$var reg 15 : REG6[14:0] $end
$var reg 15 ; REG7[14:0] $end
$var reg 15 < REG8[14:0] $end
$var reg 15 = REG9[14:0] $end
$var reg 15 > REG10[14:0] $end
$var reg 15 ? REG11[14:0] $end
$var reg 15 @ STACK0[14:0] $end
$var reg 15 A STACK1[14:0] $end
$var reg 15 B STACK2[14:0] $end
$var reg 15 C STACK3[14:0] $end
$var reg 15 D STACK4[14:0] $end
$var reg 15 E STACK5[14:0] $end
$var reg 15 F STACK6[14:0] $end
$var reg 15 G STACK7[14:0] $end
$var reg 15 H STACK8[14:0] $end
$var reg 15 I STACK9[14:0] $end
$var reg 15 J STACK10[14:0] $end
$var reg 15 K STACK11[14:0] $end
$var reg 15 L STACK12[14:0] $end
$upscope $end
$enddefinitions $end
#0
$dumpvars
0!
0"
b11 #
b1 $
b1 %
b0 &
b0 '
b0 (
b0 )
b0 *
b0 +
b0 ,
b0 -
0.
0/
00
01
b0 2
03
b0 4
b0 5
b0 6
b0 7
b0 8
b0 9
b0 :
b0 ;
b0 <
b0 =
b0 >
b0 ?
b0 @
b0 A
b0 B
b0 C
b0 D
b0 E
b0 F
b0 G
b0 H
b0 I
b0 J
b0 K
b0 L
$end
#2500
1"
b100000011 '
#5000
0"
#7500
1"
b1 &
#10000
0"
#12500
1"
b1100000000000 '
#15000
0"
#17500
1"
b10 &
#20000
0"
#22500
1"
bZ #
b10 $
b0 %
bZ &
bZ '
#25000
0"
b100000011 (
b1100000000000 )
#27500
1"
b1 #
b100 $
b10 %
b100000011 &
#30000
0"
#32500
1"
#35000
0"
#37500
1"
b11 #
b10111010000 '
#40000
0"
#42500
1"
b100000 #
b0 '
#45000
0"
#47500
1"
bZ #
b1000 $
bZ '
#50000
0"
b10111010000 +
b11 -
1/
#52500
1"
b10000 $
b100 %
bZ &
#55000
0"
#57500
1"
b0 #
b1100000 $
b1000 %
b10111010000 '
b10111010000 2
#60000
0"
#62500
1"
b11000 %
#65000
0"
#67500
1"
b1000000 #
b1100001 $
b10 &
b10111010000 7
#70000
0"
#72500
1"
b0 #
b1000001 $
bZ '
#75000
0"
#77500
1"
bZ #
b1 $
b10000 %
#80000
0"
#82500
1"
b11 #
b1 %
b1000000000000 '
#85000
0"
#87500
1"
b100000010 '
#90000
0"
#92500
1"
b11 &
#95000
0"
#97500
1"
b1000000000000 '
#100000
0"
#102500
1"
b100 &
#105000
0"
#107500
1"
bZ #
b10 $
b0 %
bZ &
bZ '
#110000
0"
b100000010 (
b1000000000000 )
#112500
1"
b1 #
b100 $
b10 %
b100000010 &
#115000
0"
#117500
1"
#120000
0"
#122500
1"
b11 #
b11 '
#125000
0"
#127500
1"
b100000 #
b0 '
#130000
0"
#132500
1"
bZ #
b1000 $
bZ '
#135000
0"
b11 +
b10 -
#137500
1"
b10000 $
b100 %
bZ &
#140000
0"
#142500
1"
b0 #
b1100000 $
b1000 %
b11 '
b11 2
#145000
0"
#147500
1"
b11000 %
#150000
0"
#152500
1"
b1000000 #
b1100001 $
b100 &
b11 6
#155000
0"
#157500
1"
b0 #
b1000001 $
bZ '
#160000
0"
#162500
1"
bZ #
b1 $
b10000 %
#165000
0"
#167500
1"
b11 #
b1 %
b100000010 '
#170000
0"
#172500
1"
b100000000 '
#175000
0"
#177500
1"
b101 &
#180000
0"
#182500
1"
b0 '
#185000
0"
#187500
1"
b110 &
#190000
0"
#192500
1"
bZ #
b10 $
b0 %
bZ &
bZ '
#195000
0"
b100000000 (
b0 )
#197500
1"
b1 #
b100 $
b10 %
b100000000 &
#200000
0"
#202500
1"
#205000
0"
#207500
1"
b11 #
b1 '
#210000
0"
#212500
1"
b100000 #
b0 '
#215000
0"
#217500
1"
bZ #
b1000 $
bZ '
#220000
0"
b1 +
b0 -
#222500
1"
b10000 $
b100 %
bZ &
#225000
0"
#227500
1"
b0 #
b1100000 $
b1000 %
b1 '
b1 2
#230000
0"
#232500
1"
b11000 %
#235000
0"
#237500
1"
b1000000 #
b1100001 $
b110 &
b1 4
#240000
0"
#242500
1"
b0 #
b1000001 $
bZ '
#245000
0"
#247500
1"
bZ #
b1 $
b10000 %
#250000
0"
#252500
1"
b11 #
b1 %
b100000011 '
#255000
0"
#257500
1"
b101100000010 '
#260000
0"
#262500
1"
b111 &
#265000
0"
#267500
1"
b1100000000000 '
#270000
0"
#272500
1"
b1000 &
#275000
0"
#277500
1"
bZ #
b10 $
b0 %
bZ &
bZ '
#280000
0"
b101100000010 (
b1100000000000 )
b101 *
#282500
1"
b1 #
b100 $
b10 %
b100000010 &
#285000
0"
#287500
1"
#290000
0"
#292500
1"
b11 #
b11 '
#295000
0"
#297500
1"
b100000 #
b10111010000 '
#300000
0"
#302500
1"
bZ #
b1000 $
bZ '
#305000
0"
b11 +
b10111010000 ,
b100000010 -
1.
0/
#307500
1"
b10000 $
b100 %
bZ &
13
#310000
0"
#312500
1"
b1 #
b1100000 $
b1000 %
b100000010 &
b111101000110011 '
b111101000110011 2
#315000
0"
#317500
1"
b101 #
b11000 %
#320000
0"
#322500
1"
b1100001 $
bX0000X0X0 &
#325000
0"
#327500
1"
b0 #
b1000001 $
bZ '
#330000
0"
#332500
1"
bZ #
b1 $
b10000 %
b1000 &
#335000
0"
#337500
1"
b11 #
b1 %
b100000011 '
#340000
0"
#342500
1"
b11000000000 '
#345000
0"
#347500
1"
b1001 &
#350000
0"
#352500
1"
b11100000000 '
#355000
0"
#357500
1"
b1010 &
#360000
0"
#362500
1"
bZ #
b10 $
b0 %
bZ &
bZ '
#365000
0"
b11000000000 (
b11100000000 )
b11 *
#367500
1"
b0 #
b100 $
b10 %
b0 &
#370000
0"
#372500
1"
#375000
0"
#377500
1"
b100000 #
b1 '
#380000
0"
#382500
1"
b0 #
bZ '
#385000
0"
#387500
1"
bZ #
b1000 $
#390000
0"
b1 +
bX ,
bX -
0.
10
#392500
1"
b10000 $
b100 %
bZ &
b1 @
#395000
0"
#397500
1"
b0 #
b0 $
b1000 %
bX '
bX 2
#400000
0"
#402500
1"
bZ #
b0 %
bZ '
#405000
0"
#407500
1"
#410000
0"
#412500
1"
#415000
0"
#417500
1"
b11 #
b1 $
b1 %
b1010 &
b11000000000 '
#420000
0"
#422500
1"
#425000
0"
#427500
1"
b1011 &
#430000
0"
#432500
1"
b0 '
#435000
0"
#437500
1"
b1100 &
#440000
0"
#442500
1"
bZ #
b10 $
b0 %
bZ &
bZ '
#445000
0"
b0 )
#447500
1"
b0 #
b100 $
b10 %
b0 &
#450000
0"
#452500
1"
#455000
0"
#457500
1"
b100000 #
b1 '
#460000
0"
#462500
1"
b0 #
bZ '
#465000
0"
#467500
1"
bZ #
b1000 $
#470000
0"
#472500
1"
b10000 $
b100 %
bZ &
b1 A
#475000
0"
#477500
1"
b0 #
b0 $
b1000 %
bX '
#480000
0"
#482500
1"
bZ #
b0 %
bZ '
#485000
0"
#487500
1"
#490000
0"
#492500
1"
#495000
0"
#497500
1"
b11 #
b1 $
b1 %
b1100 &
b100000000111 '
#500000
0"
#502500
1"
#505000
0"
#507500
1"
b1101 &
#510000
0"
#512500
1"
b0 '
#515000
0"
#517500
1"
b1110 &
#520000
0"
#522500
1"
bZ #
b10 $
b0 %
bZ &
bZ '
#525000
0"
b100000000111 (
b100 *
11
#527500
1"
b0 #
b1100 $
b10 %
b111 &
#530000
0"
bX +
b111 -
1/
00
#532500
1"
b11100 $
b110 %
#535000
0"
#537500
1"
b1111100 $
b1110 %
b0 '
b0 2
#540000
0"
#542500
1"
b11110 %
#545000
0"
#547500
1"
b0X000000 #
b1111101 $
b0X11X &
b1 '
b1 2
#550000
0"
#552500
1"
b0 #
b1011101 $
bZ '
#555000
0"
#557500
1"
b1111101 $
b1 '
#560000
0"
#562500
1"
#565000
0"
#567500
1"
b0X000000 #
#570000
0"
#572500
1"
b0 #
b1011101 $
bZ '
#575000
0"
#577500
1"
b1111101 $
b1 '
#580000
0"
#582500
1"
#585000
0"
#587500
1"
b0X000000 #
#590000
0"
#592500
1"
b0 #
b1011101 $
bZ '
#595000
0"
#597500
1"
b1111101 $
b1 '
#600000
0"
#602500
1"
#605000
0"
#607500
1"
b0X000000 #
#610000
1!
0"
#612500
1"
b0 #
b1011101 $
bZ '
#615000
0"
#617500
1"
b1111101 $
b1 '
#620000
0"
#622500
1"
#625000
0"
#627500
1"
b0X000000 #
#630000
0"
#632500
1"
b0 #
b1011101 $
bZ '
#635000
0"
#637500
1"
b1111101 $
b1 '
#640000
0"
#642500
1"
#645000
0"
#647500
1"
b0X000000 #
#650000
0"
#652500
1"
b0 #
b1011101 $
bZ '
#655000
0"
#657500
1"
b1111101 $
b1 '
#660000
0"
#662500
1"
#665000
0"
#667500
1"
b0X000000 #
#670000
0"
#672500
1"
b0 #
b1011101 $
bZ '
#675000
0"
#677500
1"
b1111101 $
b1 '
#680000
0"
#682500
1"
#685000
0"
#687500
1"
b0X000000 #
#690000
0"
#692500
1"
b0 #
b1011101 $
bZ '
#695000
0"
#697500
1"
b1111101 $
b1 '
#700000
0"
#702500
1"
#705000
0"
#707500
1"
b0X000000 #
#710000
0"
#712500
1"
b0 #
b1011101 $
bZ '
#715000
0"
#717500
1"
b1111101 $
b1 '
#720000
0"
#722500
1"
#725000
0"
#727500
1"
b0X000000 #
#730000
0"
#732500
1"
b0 #
b1011101 $
bZ '
#735000
0"
#737500
1"
b1111101 $
b1 '
#740000
0"
#742500
1"
#745000
0"
#747500
1"
b0X000000 #
#750000
0"
#752500
1"
b0 #
b1011101 $
bZ '
#755000
0"
#757500
1"
b1111101 $
b1 '
#760000
0"
#762500
1"
#765000
0"
#767500
1"
b0X000000 #
#770000
0"
#772500
1"
b0 #
b1011101 $
bZ '
#775000
0"
#777500
1"
b1111101 $
b1 '
#780000
0"
#782500
1"
#785000
0"
#787500
1"
b0X000000 #
#790000
0"
#792500
1"
b0 #
b1011101 $
bZ '
#795000
0"
#797500
1"
b1111101 $
b1 '
#800000
0"
#802500
1"
#805000
0"
#807500
1"
b0X000000 #
#810000
0"
#812500
1"
b0 #
b1011101 $
bZ '
#815000
0"
#817500
1"
b1111101 $
b1 '
#820000
0"
#822500
1"
#825000
0"
#827500
1"
b0X000000 #
#830000
0"
#832500
1"
b0 #
b1011101 $
bZ '
#835000
0"
#837500
1"
b1111101 $
b1 '
#840000
0"
#842500
1"
#845000
0"
#847500
1"
b0X000000 #
#850000
0"
#852500
1"
b0 #
b1011101 $
bZ '
#855000
0"
#857500
1"
b1111101 $
b1 '
#860000
0"
#862500
1"
#865000
0"
#867500
1"
b0X000000 #
#870000
0"
#872500
1"
b0 #
b1011101 $
bZ '
#875000
0"
#877500
1"
b1111101 $
b1 '
#880000
0"
#882500
1"
#885000
0"
#887500
1"
b0X000000 #
#890000
0"
#892500
1"
b0 #
b1011101 $
bZ '
#895000
0"
#897500
1"
b1111101 $
b1 '
#900000
0"
#902500
1"
#905000
0"
#907500
1"
b0X000000 #
#910000
0"
#912500
1"
b0 #
b1011101 $
bZ '
#915000
0"
#917500
1"
b1111101 $
b1 '
#920000
0"
#922500
1"
#925000
0"
#927500
1"
b0X000000 #
#930000
0"
#932500
1"
b0 #
b1011101 $
bZ '
#935000
0"
#937500
1"
b1111101 $
b1 '
#940000
0"
#942500
1"
#945000
0"
#947500
1"
b0X000000 #
#950000
0"
#952500
1"
b0 #
b1011101 $
bZ '
#955000
0"
#957500
1"
b1111101 $
b1 '
#960000
0"
#962500
1"
#965000
0"
#967500
1"
b0X000000 #
#970000
0"
#972500
1"
b0 #
b1011101 $
bZ '
#975000
0"
#977500
1"
b1111101 $
b1 '
#980000
0"
#982500
1"
#985000
0"
#987500
1"
b0X000000 #
#990000
0"
#992500
1"
b0 #
b1011101 $
bZ '
#995000
0"
#997500
1"
b1111101 $
b1 '
